{
    "paging": {
        "page": 1,
        "pages": 3,
        "pageSize": 10,
        "total": 30
    },
    "certificates": [
        {
            "created": {
                "year": 2022,
                "month": 11,
                "day": 30,
                "hours": 8,
                "minutes": 27,
                "seconds": 35
            },
            "isTemplateBased": false,
            "kind": "Isolation",
            "location": "Bridge Deck",
            "hasAdditionalLocations": false,
            "registrationNumber": "0-FPSO#00360",
            "riskAssessmentLevel": null,
            "riskOfWork": null,
            "site": "Floating Production, Storage and Offloading Unit (FPSO)",
            "state": "Requesting",
            "equipmentCode": "FPSO-490-PD-02A",
            "equipmentDescription": "ANTISCALING DOSING PUMP",
            "unlistedEquipment": null,
            "system": null,
            "title": "ICC (300 points)",
            "variant": "DefaultIsolationCertificate",
            "workItemType": "IsolationCertificate",
            "plannedStartDate": null,
            "workingHoursFrom": null,
            "certificateReference": null,
            "watermarkResourceKey": "Watermark_WorkItemState_Requesting",
            "dueAt": null,
            "auditDate": null,
            "auditorFullName": null
        },
        {
            "created": {
                "year": 2022,
                "month": 11,
                "day": 30,
                "hours": 8,
                "minutes": 27,
                "seconds": 31
            },
            "isTemplateBased": false,
            "kind": "Isolation",
            "location": "Bridge Deck",
            "hasAdditionalLocations": false,
            "registrationNumber": "0-FPSO#00359",
            "riskAssessmentLevel": null,
            "riskOfWork": null,
            "site": "Floating Production, Storage and Offloading Unit (FPSO)",
            "state": "Requesting",
            "equipmentCode": "FPSO-490-PD-02A",
            "equipmentDescription": "ANTISCALING DOSING PUMP",
            "unlistedEquipment": null,
            "system": null,
            "title": "ICC (200 points)",
            "variant": "DefaultIsolationCertificate",
            "workItemType": "IsolationCertificate",
            "plannedStartDate": null,
            "workingHoursFrom": null,
            "certificateReference": null,
            "watermarkResourceKey": "Watermark_WorkItemState_Requesting",
            "dueAt": null,
            "auditDate": null,
            "auditorFullName": null
        },
        {
            "created": {
                "year": 2022,
                "month": 11,
                "day": 30,
                "hours": 8,
                "minutes": 27,
                "seconds": 28
            },
            "isTemplateBased": false,
            "kind": "Isolation",
            "location": "Bridge Deck",
            "hasAdditionalLocations": false,
            "registrationNumber": "0-FPSO#00358",
            "riskAssessmentLevel": null,
            "riskOfWork": null,
            "site": "Floating Production, Storage and Offloading Unit (FPSO)",
            "state": "Requesting",
            "equipmentCode": "FPSO-490-PD-02A",
            "equipmentDescription": "ANTISCALING DOSING PUMP",
            "unlistedEquipment": null,
            "system": null,
            "title": "ICC (100 points)",
            "variant": "DefaultIsolationCertificate",
            "workItemType": "IsolationCertificate",
            "plannedStartDate": null,
            "workingHoursFrom": null,
            "certificateReference": null,
            "watermarkResourceKey": "Watermark_WorkItemState_Requesting",
            "dueAt": null,
            "auditDate": null,
            "auditorFullName": null
        },
        {
            "created": {
                "year": 2022,
                "month": 11,
                "day": 30,
                "hours": 8,
                "minutes": 27,
                "seconds": 24
            },
            "isTemplateBased": false,
            "kind": "Isolation",
            "location": "Bridge Deck",
            "hasAdditionalLocations": false,
            "registrationNumber": "0-FPSO#00357",
            "riskAssessmentLevel": null,
            "riskOfWork": null,
            "site": "Floating Production, Storage and Offloading Unit (FPSO)",
            "state": "Requesting",
            "equipmentCode": "FPSO-490-PD-02A",
            "equipmentDescription": "ANTISCALING DOSING PUMP",
            "unlistedEquipment": null,
            "system": null,
            "title": "ICC (80 points)",
            "variant": "DefaultIsolationCertificate",
            "workItemType": "IsolationCertificate",
            "plannedStartDate": null,
            "workingHoursFrom": null,
            "certificateReference": null,
            "watermarkResourceKey": "Watermark_WorkItemState_Requesting",
            "dueAt": null,
            "auditDate": null,
            "auditorFullName": null
        },
        {
            "created": {
                "year": 2022,
                "month": 11,
                "day": 30,
                "hours": 8,
                "minutes": 27,
                "seconds": 22
            },
            "isTemplateBased": false,
            "kind": "Isolation",
            "location": "Bridge Deck",
            "hasAdditionalLocations": false,
            "registrationNumber": "0-FPSO#00356",
            "riskAssessmentLevel": null,
            "riskOfWork": null,
            "site": "Floating Production, Storage and Offloading Unit (FPSO)",
            "state": "Requesting",
            "equipmentCode": "FPSO-490-PD-02A",
            "equipmentDescription": "ANTISCALING DOSING PUMP",
            "unlistedEquipment": null,
            "system": null,
            "title": "ICC (40 points)",
            "variant": "DefaultIsolationCertificate",
            "workItemType": "IsolationCertificate",
            "plannedStartDate": null,
            "workingHoursFrom": null,
            "certificateReference": null,
            "watermarkResourceKey": "Watermark_WorkItemState_Requesting",
            "dueAt": null,
            "auditDate": null,
            "auditorFullName": null
        },
        {
            "created": {
                "year": 2022,
                "month": 11,
                "day": 30,
                "hours": 8,
                "minutes": 27,
                "seconds": 20
            },
            "isTemplateBased": false,
            "kind": "Isolation",
            "location": "Bridge Deck",
            "hasAdditionalLocations": false,
            "registrationNumber": "0-FPSO#00355",
            "riskAssessmentLevel": null,
            "riskOfWork": null,
            "site": "Floating Production, Storage and Offloading Unit (FPSO)",
            "state": "Requesting",
            "equipmentCode": "FPSO-490-PD-02A",
            "equipmentDescription": "ANTISCALING DOSING PUMP",
            "unlistedEquipment": null,
            "system": null,
            "title": "ICC (20 points)",
            "variant": "DefaultIsolationCertificate",
            "workItemType": "IsolationCertificate",
            "plannedStartDate": null,
            "workingHoursFrom": null,
            "certificateReference": null,
            "watermarkResourceKey": "Watermark_WorkItemState_Requesting",
            "dueAt": null,
            "auditDate": null,
            "auditorFullName": null
        },
        {
            "created": {
                "year": 2022,
                "month": 11,
                "day": 30,
                "hours": 8,
                "minutes": 27,
                "seconds": 19
            },
            "isTemplateBased": false,
            "kind": "Isolation",
            "location": "Bridge Deck",
            "hasAdditionalLocations": false,
            "registrationNumber": "0-FPSO#00354",
            "riskAssessmentLevel": null,
            "riskOfWork": null,
            "site": "Floating Production, Storage and Offloading Unit (FPSO)",
            "state": "Requesting",
            "equipmentCode": "FPSO-490-PD-02A",
            "equipmentDescription": "ANTISCALING DOSING PUMP",
            "unlistedEquipment": null,
            "system": null,
            "title": "ICC (15 points)",
            "variant": "DefaultIsolationCertificate",
            "workItemType": "IsolationCertificate",
            "plannedStartDate": null,
            "workingHoursFrom": null,
            "certificateReference": null,
            "watermarkResourceKey": "Watermark_WorkItemState_Requesting",
            "dueAt": null,
            "auditDate": null,
            "auditorFullName": null
        },
        {
            "created": {
                "year": 2022,
                "month": 11,
                "day": 30,
                "hours": 8,
                "minutes": 27,
                "seconds": 18
            },
            "isTemplateBased": false,
            "kind": "Isolation",
            "location": "Bridge Deck",
            "hasAdditionalLocations": false,
            "registrationNumber": "0-FPSO#00353",
            "riskAssessmentLevel": null,
            "riskOfWork": null,
            "site": "Floating Production, Storage and Offloading Unit (FPSO)",
            "state": "Requesting",
            "equipmentCode": "FPSO-490-PD-02A",
            "equipmentDescription": "ANTISCALING DOSING PUMP",
            "unlistedEquipment": null,
            "system": null,
            "title": "ICC (10 points)",
            "variant": "DefaultIsolationCertificate",
            "workItemType": "IsolationCertificate",
            "plannedStartDate": null,
            "workingHoursFrom": null,
            "certificateReference": null,
            "watermarkResourceKey": "Watermark_WorkItemState_Requesting",
            "dueAt": null,
            "auditDate": null,
            "auditorFullName": null
        },
        {
            "created": {
                "year": 2022,
                "month": 11,
                "day": 30,
                "hours": 8,
                "minutes": 27,
                "seconds": 17
            },
            "isTemplateBased": false,
            "kind": "Isolation",
            "location": "Bridge Deck",
            "hasAdditionalLocations": false,
            "registrationNumber": "0-FPSO#00352",
            "riskAssessmentLevel": null,
            "riskOfWork": null,
            "site": "Floating Production, Storage and Offloading Unit (FPSO)",
            "state": "Requesting",
            "equipmentCode": "FPSO-490-PD-02A",
            "equipmentDescription": "ANTISCALING DOSING PUMP",
            "unlistedEquipment": null,
            "system": null,
            "title": "ICC (5 points)",
            "variant": "DefaultIsolationCertificate",
            "workItemType": "IsolationCertificate",
            "plannedStartDate": null,
            "workingHoursFrom": null,
            "certificateReference": null,
            "watermarkResourceKey": "Watermark_WorkItemState_Requesting",
            "dueAt": null,
            "auditDate": null,
            "auditorFullName": null
        },
        {
            "created": {
                "year": 2022,
                "month": 11,
                "day": 30,
                "hours": 8,
                "minutes": 27,
                "seconds": 16
            },
            "isTemplateBased": false,
            "kind": "Isolation",
            "location": "Bridge Deck",
            "hasAdditionalLocations": false,
            "registrationNumber": "0-FPSO#00351",
            "riskAssessmentLevel": null,
            "riskOfWork": null,
            "site": "Floating Production, Storage and Offloading Unit (FPSO)",
            "state": "Requesting",
            "equipmentCode": "FPSO-490-PD-02A",
            "equipmentDescription": "ANTISCALING DOSING PUMP",
            "unlistedEquipment": null,
            "system": null,
            "title": "ICC (2 points)",
            "variant": "DefaultIsolationCertificate",
            "workItemType": "IsolationCertificate",
            "plannedStartDate": null,
            "workingHoursFrom": null,
            "certificateReference": null,
            "watermarkResourceKey": "Watermark_WorkItemState_Requesting",
            "dueAt": null,
            "auditDate": null,
            "auditorFullName": null
        }
    ]
}